module github.com/kadycui/fiber-ci

go 1.21.4

require (
	github.com/gofiber/contrib/jwt v1.0.7
	github.com/gofiber/fiber/v2 v2.51.0
	github.com/gofiber/swagger v0.1.14
	github.com/gofiber/template/html/v2 v2.0.5
	github.com/golang-jwt/jwt v3.2.2+incompatible
	github.com/joho/godotenv v1.5.1
	github.com/swaggo/swag v1.16.2
	golang.org/x/crypto v0.16.0
	gorm.io/driver/postgres v1.5.4
	gorm.io/gorm v1.25.5
)

require (
	github.com/KyleBanks/depth v1.2.1 // indirect
	github.com/MicahParks/keyfunc/v2 v2.1.0 // indirect
	github.com/andybalholm/brotli v1.0.6 // indirect
	github.com/go-openapi/jsonpointer v0.19.5 // indirect
	github.com/go-openapi/jsonreference v0.20.0 // indirect
	github.com/go-openapi/spec v0.20.8 // indirect
	github.com/go-openapi/swag v0.22.3 // indirect
	github.com/gofiber/template v1.8.2 // indirect
	github.com/gofiber/utils v1.1.0 // indirect
	github.com/golang-jwt/jwt/v5 v5.0.0 // indirect
	github.com/google/uuid v1.4.0 // indirect
	github.com/jackc/pgpassfile v1.0.0 // indirect
	github.com/jackc/pgservicefile v0.0.0-20221227161230-091c0ba34f0a // indirect
	github.com/jackc/pgx/v5 v5.5.0 // indirect
	github.com/jackc/puddle/v2 v2.2.1 // indirect
	github.com/jinzhu/inflection v1.0.0 // indirect
	github.com/jinzhu/now v1.1.5 // indirect
	github.com/josharian/intern v1.0.0 // indirect
	github.com/klauspost/compress v1.17.3 // indirect
	github.com/mailru/easyjson v0.7.7 // indirect
	github.com/mattn/go-colorable v0.1.13 // indirect
	github.com/mattn/go-isatty v0.0.20 // indirect
	github.com/mattn/go-runewidth v0.0.15 // indirect
	github.com/rivo/uniseg v0.4.4 // indirect
	github.com/rogpeppe/go-internal v1.11.0 // indirect
	github.com/stretchr/testify v1.8.4 // indirect
	github.com/swaggo/files/v2 v2.0.0 // indirect
	github.com/valyala/bytebufferpool v1.0.0 // indirect
	github.com/valyala/fasthttp v1.51.0 // indirect
	github.com/valyala/tcplisten v1.0.0 // indirect
	golang.org/x/sync v0.5.0 // indirect
	golang.org/x/sys v0.15.0 // indirect
	golang.org/x/text v0.14.0 // indirect
	golang.org/x/tools v0.7.0 // indirect
	gopkg.in/yaml.v3 v3.0.1 // indirect
)
